[gd_scene load_steps=2 format=2]

[ext_resource path="res://Interface/Lobby.tscn" type="PackedScene" id=1]

[node name="Victory" instance=ExtResource( 1 )]

[node name="NinePatchRect" parent="CenterContainer" index="0"]
margin_top = 100.0
margin_bottom = 500.0

[node name="Label" parent="CenterContainer/NinePatchRect/VBoxContainer" index="0"]
visible = false

[node name="Label2" parent="CenterContainer/NinePatchRect/VBoxContainer" index="1"]
margin_top = 0.0
margin_bottom = 111.0
text = "Mission Complete!"

[node name="Split" parent="CenterContainer/NinePatchRect/VBoxContainer" index="2"]
margin_top = 119.0
margin_bottom = 131.0

[node name="CenterContainer" parent="CenterContainer/NinePatchRect/VBoxContainer" index="3"]
margin_top = 139.0
margin_bottom = 160.0
